…
```
## # A tibble: 1 × 1
##   n_countries
##         <int>
## 1         193
```


```r
income_long %>% count(country) %>% select(country)
```

```
## # A tibble: 193 × 1
##    country            
##    <fct>              
##  1 Afghanistan        
##  2 Albania            
##  3 Algeria            
##  4 Andorra            
##  5 Angola             
##  6 Antigua and Barbuda
##  7 Argentina          
##  8 Armenia            
##  9 Australia          
## 10 Austria            
## # … with 183 more rows
```
…
```
## # A tibble: 1 × 1
##   n_countries
##         <int>
## 1         187
```


```r
life_expectancy_long %>% count(country) %>% select(country)
```

```
## # A tibble: 187 × 1
##    country            
##    <fct>              
##  1 Afghanistan        
##  2 Albania            
##  3 Algeria            
##  4 Andorra            
##  5 Angola             
##  6 Antigua and Barbuda
##  7 Argentina          
##  8 Armenia            
##  9 Australia          
## 10 Austria            
## # … with 177 more rows
```
…
```
## # A tibble: 1 × 1
##   n_countries
##         <int>
## 1         195
```


```r
population_long %>% count(country) %>% select(country)
```

```
## # A tibble: 195 × 1
##    country            
##    <fct>              
##  1 Afghanistan        
##  2 Albania            
##  3 Algeria            
##  4 Andorra            
##  5 Angola             
##  6 Antigua and Barbuda
##  7 Argentina          
##  8 Armenia            
##  9 Australia          
## 10 Austria            
## # … with 185 more rows
```
…
3. (2 points) Let's limit the data to 100 years (1920-2020). For these years, which country has the highest average life expectancy? How about the lowest average life expectancy?  

Highest

```r
life_expectancy_long %>% 
  filter(year >= 1920 & year <= 2020) %>% 
  group_by(country) %>% 
  summarize(mean_life_expectancy=mean(life_expectancy)) %>% 
  arrange(desc(mean_life_expectancy))
```

```
## # A tibble: 187 × 2
##    country        mean_life_expectancy
##    <fct>                         <dbl>
##  1 Sweden                         73.5
##  2 Norway                         73.2
##  3 Netherlands                    73.0
##  4 Iceland                        72.9
##  5 Australia                      72.7
##  6 Switzerland                    72.7
##  7 Denmark                        71.9
##  8 Canada                         71.8
##  9 New Zealand                    71.4
## 10 United Kingdom                 71.1
## # … with 177 more rows
```

Lowest

```r
life_expectancy_long %>% 
  filter(year >= 1920 & year <= 2020) %>% 
  group_by(country) %>% 
  summarize(mean_life_expectancy=mean(life_expectancy)) %>% 
  arrange(mean_life_expectancy)
```

```
## # A tibble: 187 × 2
##    country                  mean_life_expectancy
##    <fct>                                   <dbl>
##  1 Central African Republic                 41.8
##  2 Mali                                     41.8
##  3 Ethiopia                                 42.6
##  4 Sierra Leone                             42.6
##  5 Guinea-Bissau                            42.6
##  6 Burundi                                  42.8
##  7 Malawi                                   42.8
##  8 Uganda                                   43.3
##  9 Eritrea                                  43.4
## 10 Yemen                                    43.6
## # … with 177 more rows
```
…
```r
income_100 <- 
  income_long %>% 
  filter(year >= 1920 & year <= 2020)
```


```r
gapminder_join <- inner_join(life_expectancy_100, population_100, by= c("country", "year"))
gapminder_join <- inner_join(gapminder_join, income_100, by= c("country", "year"))
gapminder_join
```

```
## # A tibble: 18,887 × 5
##    country     year  life_expectancy population income
##    <fct>       <chr>           <dbl>      <dbl>  <dbl>
##  1 Afghanistan 1920             30.6   10600000   1490
##  2 Afghanistan 1921             30.7   10500000   1520
##  3 Afghanistan 1922             30.8   10300000   1550
##  4 Afghanistan 1923             30.8    9710000   1570
##  5 Afghanistan 1924             30.9    9200000   1600
##  6 Afghanistan 1925             31      8720000   1630
##  7 Afghanistan 1926             31      8260000   1650
##  8 Afghanistan 1927             31.1    7830000   1680
##  9 Afghanistan 1928             31.1    7420000   1710
## 10 Afghanistan 1929             31.2    7100000   1740
## # … with 18,877 more rows
```
10. (4 points) Use the joined data to perform an analysis of your choice. The analysis should include a comparison between two or more of the variables `life_expectancy`, `population`, or `income.`  

_Is there a relationship between GDP and life expectancy?_


```r
gapminder_join %>% 
  group_by(country) %>% 
  summarize(mean_life_expectancy=mean(life_expectancy, na.rm=T),
            mean_income=mean(income, na.rm=T),
            mean_population=mean(population, na.rm=T))
```

```
## # A tibble: 187 × 4
##    country             mean_life_expectancy mean_income mean_population
##    <fct>                              <dbl>       <dbl>           <dbl>
##  1 Afghanistan                         43.8       1939.       14364950.
##  2 Albania                             61.4       4170.        2103921.
##  3 Algeria                             56.3       7850.       18523663.
##  4 Andorra                             79.8      22644.          33919.
##  5 Angola                              44.0       3964.       10088218.
##  6 Antigua and Barbuda                 63.2       9941.          58739.
##  7 Argentina                           65.8      11752.       25267327.
##  8 Armenia                             60.2       3403.        2258119.
##  9 Australia                           72.7      22795.       13247228.
## 10 Austria                             68.6      20916.        7453564.
## # … with 177 more rows
```
…
