…
```r
library(tidyverse)
```

## Mammals Sleep
1. For this assignment, we are going to use built-in data on mammal sleep patterns. From which publication are these data taken from? Since the data are built-in you can use the help function in R.

```r
?msleep
ggplot2::msleep
```

```
## # A tibble: 83 × 11
##    name         genus vore  order conse…¹ sleep…² sleep…³ sleep…⁴ awake  brainwt
##    <chr>        <chr> <chr> <chr> <chr>     <dbl>   <dbl>   <dbl> <dbl>    <dbl>
##  1 Cheetah      Acin… carni Carn… lc         12.1    NA    NA      11.9 NA      
##  2 Owl monkey   Aotus omni  Prim… <NA>       17       1.8  NA       7    0.0155 
##  3 Mountain be… Aplo… herbi Rode… nt         14.4     2.4  NA       9.6 NA      
##  4 Greater sho… Blar… omni  Sori… lc         14.9     2.3   0.133   9.1  0.00029
##  5 Cow          Bos   herbi Arti… domest…     4       0.7   0.667  20    0.423  
##  6 Three-toed … Brad… herbi Pilo… <NA>       14.4     2.2   0.767   9.6 NA      
##  7 Northern fu… Call… carni Carn… vu          8.7     1.4   0.383  15.3 NA      
##  8 Vesper mouse Calo… <NA>  Rode… <NA>        7      NA    NA      17   NA      
##  9 Dog          Canis carni Carn… domest…    10.1     2.9   0.333  13.9  0.07   
## 10 Roe deer     Capr… herbi Arti… lc          3      NA    NA      21    0.0982 
## # … with 73 more rows, 1 more variable: bodywt <dbl>, and abbreviated variable
## #   names ¹​conservation, ²​sleep_total, ³​sleep_rem, ⁴​sleep_cycle
```
…
```
##  [1] "name"         "genus"        "vore"         "order"        "conservation"
##  [6] "sleep_total"  "sleep_rem"    "sleep_cycle"  "awake"        "brainwt"     
## [11] "bodywt"
```

6. How many herbivores are represented in the data?  

```r
herbivores <- filter(sleep, vore=="herbi")
herbivores
```

```
## # A tibble: 32 × 11
##    name  genus vore  order conse…¹ sleep…² sleep…³ sleep…⁴ awake brainwt  bodywt
##    <chr> <chr> <chr> <chr> <chr>     <dbl>   <dbl>   <dbl> <dbl>   <dbl>   <dbl>
##  1 Moun… Aplo… herbi Rode… nt         14.4     2.4  NA       9.6 NA      1.35e+0
##  2 Cow   Bos   herbi Arti… domest…     4       0.7   0.667  20    0.423  6   e+2
##  3 Thre… Brad… herbi Pilo… <NA>       14.4     2.2   0.767   9.6 NA      3.85e+0
##  4 Roe … Capr… herbi Arti… lc          3      NA    NA      21    0.0982 1.48e+1
##  5 Goat  Capri herbi Arti… lc          5.3     0.6  NA      18.7  0.115  3.35e+1
##  6 Guin… Cavis herbi Rode… domest…     9.4     0.8   0.217  14.6  0.0055 7.28e-1
##  7 Chin… Chin… herbi Rode… domest…    12.5     1.5   0.117  11.5  0.0064 4.2 e-1
##  8 Tree… Dend… herbi Hyra… lc          5.3     0.5  NA      18.7  0.0123 2.95e+0
##  9 Asia… Elep… herbi Prob… en          3.9    NA    NA      20.1  4.60   2.55e+3
## 10 Horse Equus herbi Peri… domest…     2.9     0.6   1      21.1  0.655  5.21e+2
## # … with 22 more rows, and abbreviated variable names ¹​conservation,
## #   ²​sleep_total, ³​sleep_rem, ⁴​sleep_cycle
```
There are 32 herbivores represented in the data. 

7. We are interested in two groups; small and large mammals. Let's define small as less than or equal to 1kg body weight and large as greater than or equal to 200kg body weight. Make two new dataframes (large and small) based on these parameters.

```r
small <- filter(sleep, bodywt<=1)
small
```

```
## # A tibble: 36 × 11
##    name  genus vore  order conse…¹ sleep…² sleep…³ sleep…⁴ awake  brainwt bodywt
##    <chr> <chr> <chr> <chr> <chr>     <dbl>   <dbl>   <dbl> <dbl>    <dbl>  <dbl>
##  1 Owl … Aotus omni  Prim… <NA>       17       1.8  NA       7    0.0155   0.48 
##  2 Grea… Blar… omni  Sori… lc         14.9     2.3   0.133   9.1  0.00029  0.019
##  3 Vesp… Calo… <NA>  Rode… <NA>        7      NA    NA      17   NA        0.045
##  4 Guin… Cavis herbi Rode… domest…     9.4     0.8   0.217  14.6  0.0055   0.728
##  5 Chin… Chin… herbi Rode… domest…    12.5     1.5   0.117  11.5  0.0064   0.42 
##  6 Star… Cond… omni  Sori… lc         10.3     2.2  NA      13.7  0.001    0.06 
##  7 Afri… Cric… omni  Rode… <NA>        8.3     2    NA      15.7  0.0066   1    
##  8 Less… Cryp… omni  Sori… lc          9.1     1.4   0.15   14.9  0.00014  0.005
##  9 Big … Epte… inse… Chir… lc         19.7     3.9   0.117   4.3  0.0003   0.023
## 10 Euro… Erin… omni  Erin… lc         10.1     3.5   0.283  13.9  0.0035   0.77 
## # … with 26 more rows, and abbreviated variable names ¹​conservation,
## #   ²​sleep_total, ³​sleep_rem, ⁴​sleep_cycle
```
…
