…
**4. What taxa are represented in the `homerange` data frame? Make a new data frame `taxa` that is restricted to taxon, common name, class, order, family, genus, species.**  

```r
taxa <- select(homerange, "taxon", "common.name", "class", "order", "family", "genus", "species")
taxa
```

```
## # A tibble: 569 × 7
##    taxon         common.name             class        order family genus species
##    <fct>         <chr>                   <chr>        <fct> <chr>  <chr> <chr>  
##  1 lake fishes   american eel            actinoptery… angu… angui… angu… rostra…
##  2 river fishes  blacktail redhorse      actinoptery… cypr… catos… moxo… poecil…
##  3 river fishes  central stoneroller     actinoptery… cypr… cypri… camp… anomal…
##  4 river fishes  rosyside dace           actinoptery… cypr… cypri… clin… fundul…
##  5 river fishes  longnose dace           actinoptery… cypr… cypri… rhin… catara…
##  6 river fishes  muskellunge             actinoptery… esoc… esoci… esox  masqui…
##  7 marine fishes pollack                 actinoptery… gadi… gadid… poll… pollac…
##  8 marine fishes saithe                  actinoptery… gadi… gadid… poll… virens 
##  9 marine fishes lined surgeonfish       actinoptery… perc… acant… acan… lineat…
## 10 marine fishes orangespine unicornfish actinoptery… perc… acant… naso  litura…
## # … with 559 more rows
```
…
**7. Make two new data frames, one which is restricted to carnivores and another that is restricted to herbivores.**  

```r
herbivores <- filter(homerange, trophic.guild == "herbivore")
herbivores
```

```
## # A tibble: 227 × 24
##    taxon  commo…¹ class order family genus species prima…² N     mean.…³ log10…⁴
##    <fct>  <chr>   <chr> <fct> <chr>  <chr> <chr>   <chr>   <chr>   <dbl>   <dbl>
##  1 marin… lined … acti… perc… acant… acan… lineat… direct… <NA>   109.     2.04 
##  2 marin… orange… acti… perc… acant… naso  litura… teleme… 8      772.     2.89 
##  3 marin… bluesp… acti… perc… acant… naso  unicor… teleme… 7      152.     2.18 
##  4 marin… redlip… acti… perc… blenn… ophi… atlant… direct… 20       6.2    0.792
##  5 marin… bermud… acti… perc… kypho… kyph… sectat… teleme… 11    1087.     3.04 
##  6 marin… cherub… acti… perc… pomac… cent… argi    direct… <NA>     2.5    0.398
##  7 marin… damsel… acti… perc… pomac… chro… chromis direct… <NA>    28.4    1.45 
##  8 marin… twinsp… acti… perc… pomac… chry… biocel… direct… 18       9.19   0.963
##  9 marin… wards … acti… perc… pomac… poma… wardi   direct… <NA>    10.5    1.02 
## 10 marin… austra… acti… perc… pomac… steg… apical… direct… <NA>    45.3    1.66 
## # … with 217 more rows, 13 more variables: alternative.mass.reference <chr>,
## #   mean.hra.m2 <dbl>, log10.hra <dbl>, hra.reference <chr>, realm <chr>,
## #   thermoregulation <chr>, locomotion <chr>, trophic.guild <chr>,
## #   dimension <dbl>, preymass <dbl>, log10.preymass <dbl>, PPMR <dbl>,
## #   prey.size.reference <chr>, and abbreviated variable names ¹​common.name,
## #   ²​primarymethod, ³​mean.mass.g, ⁴​log10.mass
```

```r
carnivores <- filter(homerange, trophic.guild == "carnivore")
carnivores
```

```
## # A tibble: 342 × 24
##    taxon  commo…¹ class order family genus species prima…² N     mean.…³ log10…⁴
##    <fct>  <chr>   <chr> <fct> <chr>  <chr> <chr>   <chr>   <chr>   <dbl>   <dbl>
##  1 lake … americ… acti… angu… angui… angu… rostra… teleme… 16       887    2.95 
##  2 river… blackt… acti… cypr… catos… moxo… poecil… mark-r… <NA>     562    2.75 
##  3 river… centra… acti… cypr… cypri… camp… anomal… mark-r… 20        34    1.53 
##  4 river… rosysi… acti… cypr… cypri… clin… fundul… mark-r… 26         4    0.602
##  5 river… longno… acti… cypr… cypri… rhin… catara… mark-r… 17         4    0.602
##  6 river… muskel… acti… esoc… esoci… esox  masqui… teleme… 5       3525    3.55 
##  7 marin… pollack acti… gadi… gadid… poll… pollac… teleme… 2        737.   2.87 
##  8 marin… saithe  acti… gadi… gadid… poll… virens  teleme… 2        449.   2.65 
##  9 marin… giant … acti… perc… caran… cara… ignobi… teleme… 4        726.   2.86 
## 10 lake … rock b… acti… perc… centr… ambl… rupest… mark-r… 16       196    2.29 
## # … with 332 more rows, 13 more variables: alternative.mass.reference <chr>,
## #   mean.hra.m2 <dbl>, log10.hra <dbl>, hra.reference <chr>, realm <chr>,
## #   thermoregulation <chr>, locomotion <chr>, trophic.guild <chr>,
## #   dimension <dbl>, preymass <dbl>, log10.preymass <dbl>, PPMR <dbl>,
## #   prey.size.reference <chr>, and abbreviated variable names ¹​common.name,
## #   ²​primarymethod, ³​mean.mass.g, ⁴​log10.mass
```
…
**10. As measured by the data, which snake species has the smallest homerange? Show all of your work, please. Look this species up online and tell me about it!** **Snake is found in taxon column**    

```r
snake <- filter(homerange, taxon == "snakes")
snake
```

```
## # A tibble: 41 × 24
##    taxon  commo…¹ class order family genus species prima…² N     mean.…³ log10…⁴
##    <fct>  <chr>   <chr> <fct> <chr>  <chr> <chr>   <chr>   <chr>   <dbl>   <dbl>
##  1 snakes wester… rept… squa… colub… carp… vermis  radiot… 1        3.46   0.539
##  2 snakes easter… rept… squa… colub… carp… viridis radiot… 10       3.65   0.562
##  3 snakes racer   rept… squa… colub… colu… constr… teleme… 15     556.     2.75 
##  4 snakes yellow… rept… squa… colub… colu… constr… teleme… 12     144.     2.16 
##  5 snakes ringne… rept… squa… colub… diad… puncta… mark-r… <NA>     9      0.954
##  6 snakes easter… rept… squa… colub… drym… couperi teleme… 1      450      2.65 
##  7 snakes great … rept… squa… colub… elap… guttat… teleme… 12     257.     2.41 
##  8 snakes wester… rept… squa… colub… elap… obsole… teleme… 18     643.     2.81 
##  9 snakes hognos… rept… squa… colub… hete… platir… teleme… 8      147.     2.17 
## 10 snakes Europe… rept… squa… colub… hier… viridi… teleme… 32     234.     2.37 
## # … with 31 more rows, 13 more variables: alternative.mass.reference <chr>,
## #   mean.hra.m2 <dbl>, log10.hra <dbl>, hra.reference <chr>, realm <chr>,
## #   thermoregulation <chr>, locomotion <chr>, trophic.guild <chr>,
## #   dimension <dbl>, preymass <dbl>, log10.preymass <dbl>, PPMR <dbl>,
## #   prey.size.reference <chr>, and abbreviated variable names ¹​common.name,
## #   ²​primarymethod, ³​mean.mass.g, ⁴​log10.mass
```

```r
snake_new <- select(snake, species, common.name, mean.hra.m2, log10.hra)
snake_new
```

```
## # A tibble: 41 × 4
##    species                  common.name           mean.hra.m2 log10.hra
##    <chr>                    <chr>                       <dbl>     <dbl>
##  1 vermis                   western worm snake            700      2.85
##  2 viridis                  eastern worm snake            253      2.40
##  3 constrictor              racer                      151000      5.18
##  4 constrictor flaviventris yellow bellied racer       114500      5.06
##  5 punctatus                ringneck snake               6476      3.81
##  6 couperi                  eastern indigo snake      1853000      6.27
##  7 guttata emoryi           great plains ratsnake      150600      5.18
##  8 obsoleta                 western ratsnake            46000      4.66
##  9 platirhinos              hognose snake              516375      5.71
## 10 viridiflavus             European whipsnake         110900      5.04
## # … with 31 more rows
```

```r
arrange(snake_new,log10.hra)
```

```
## # A tibble: 41 × 4
##    species      common.name          mean.hra.m2 log10.hra
##    <chr>        <chr>                      <dbl>     <dbl>
##  1 schneideri   namaqua dwarf adder         200       2.30
##  2 viridis      eastern worm snake          253       2.40
##  3 butleri      butlers garter snake        600       2.78
##  4 vermis       western worm snake          700       2.85
##  5 latastei     snubnosed viper            2400       3.38
##  6 shedaoensis  chinese pit viper          2614.      3.42
##  7 punctatus    ringneck snake             6476       3.81
##  8 piscivorous  cottonmouth               10655       4.03
##  9 rufodorsatus redbacked ratsnake        15400       4.19
## 10 catenifer    gopher snake              17400       4.24
## # … with 31 more rows
```
…
