…
```r
deserts
```

```
## # A tibble: 34,786 × 13
##    record…¹ month   day  year plot_id speci…² sex   hindf…³ weight genus species
##       <dbl> <dbl> <dbl> <dbl>   <dbl> <chr>   <chr>   <dbl>  <dbl> <chr> <chr>  
##  1        1     7    16  1977       2 NL      M          32     NA Neot… albigu…
##  2        2     7    16  1977       3 NL      M          33     NA Neot… albigu…
##  3        3     7    16  1977       2 DM      F          37     NA Dipo… merria…
##  4        4     7    16  1977       7 DM      M          36     NA Dipo… merria…
##  5        5     7    16  1977       3 DM      M          35     NA Dipo… merria…
##  6        6     7    16  1977       1 PF      M          14     NA Pero… flavus 
##  7        7     7    16  1977       2 PE      F          NA     NA Pero… eremic…
##  8        8     7    16  1977       1 DM      M          37     NA Dipo… merria…
##  9        9     7    16  1977       1 DM      F          34     NA Dipo… merria…
## 10       10     7    16  1977       6 PF      F          20     NA Pero… flavus 
## # … with 34,776 more rows, 2 more variables: taxa <chr>, plot_type <chr>, and
## #   abbreviated variable names ¹​record_id, ²​species_id, ³​hindfoot_length
```
…
```r
deserts %>% 
  count(species) %>% 
  arrange(desc(n)) 
```

```
## # A tibble: 40 × 2
##    species          n
##    <chr>        <int>
##  1 merriami     10596
##  2 penicillatus  3123
##  3 ordii         3027
##  4 baileyi       2891
##  5 megalotis     2609
##  6 spectabilis   2504
##  7 torridus      2249
##  8 flavus        1597
##  9 eremicus      1299
## 10 albigula      1252
## # … with 30 more rows
```
…
7. [Dipodomys merriami](https://en.wikipedia.org/wiki/Merriam's_kangaroo_rat) is the most frequently sampled animal in the study. How have the number of observations of this species changed over the years included in the study?

Based on the graph, we can see on average there is a downward trend in population, which is hard to see looking purely at the table as there are almost alternating years of relatively low and relatively high counts. 

```r
deserts %>% 
  filter(species_id == "DM") %>% 
  group_by(year) %>% 
  summarize(annual_total = n())
```

```
## # A tibble: 26 × 2
##     year annual_total
##    <dbl>        <int>
##  1  1977          264
##  2  1978          389
##  3  1979          209
##  4  1980          493
##  5  1981          559
##  6  1982          609
##  7  1983          528
##  8  1984          396
##  9  1985          667
## 10  1986          406
## # … with 16 more rows
```
…
9. Which two species have, on average, the highest weight? Once you have identified them, make a new column that is a ratio of `weight` to `hindfoot_length`. Make a plot that shows the range of this new ratio and fill by sex.

```r
deserts %>% 
  select(species,weight,hindfoot_length) %>% 
  group_by(species) %>% 
  summarize(average_weight = mean(weight, na.rm = T)) %>% 
  arrange(desc(average_weight))
```

```
## # A tibble: 40 × 2
##    species      average_weight
##    <chr>                 <dbl>
##  1 albigula              159. 
##  2 spectabilis           120. 
##  3 spilosoma              93.5
##  4 hispidus               65.6
##  5 fulviventer            58.9
##  6 ochrognathus           55.4
##  7 ordii                  48.9
##  8 merriami               43.2
##  9 baileyi                31.7
## 10 leucogaster            31.6
## # … with 30 more rows
```


```r
deserts %>% 
  filter(species == "albigula"| species == "spectabilis") %>% 
  select(species, species_id)
```

```
## # A tibble: 3,756 × 2
##    species     species_id
##    <chr>       <chr>     
##  1 albigula    NL        
##  2 albigula    NL        
##  3 spectabilis DS        
##  4 spectabilis DS        
##  5 spectabilis DS        
##  6 albigula    NL        
##  7 spectabilis DS        
##  8 albigula    NL        
##  9 spectabilis DS        
## 10 spectabilis DS        
## # … with 3,746 more rows
```
…
